! 0,0,2,8
" 10,0,5,8
# 20,0,7,8
$ 30,0,7,8
% 40,0,6,8
& 50,0,7,8
' 60,0,2,8
( 70,0,3,8
) 80,0,3,8
* 90,0,5,8
+ 0,8,6,8
, 10,8,3,8
- 20,8,6,8
. 30,8,2,8
/ 40,8,5,8
0 50,8,6,8
1 60,8,4,8
2 70,8,6,8
3 80,8,6,8
4 90,8,6,8
5 0,16,6,8
6 10,16,6,8
7 20,16,6,8
8 30,16,6,8
9 40,16,6,8
: 50,16,2,8
; 60,16,3,8
< 70,16,5,8
= 80,16,5,8
> 90,16,5,8
? 0,24,5,8
@ 10,24,7,8
A 20,24,7,8
B 30,24,7,8
C 40,24,6,8
D 50,24,7,8
E 60,24,6,8
F 70,24,6,8
G 80,24,7,8
H 90,24,6,8
I 0,32,5,8
J 10,32,7,8
K 20,32,7,8
L 30,32,6,8
M 40,32,10,8
N 50,32,8,8
O 60,32,7,8
P 70,32,7,8
Q 80,32,8,8
R 90,32,7,8
S 0,40,7,8
T 10,40,7,8
U 20,40,7,8
V 30,40,6,8
W 40,40,8,8
X 50,40,7,8
Y 60,40,7,8
Z 70,40,6,8
[ 80,40,4,8
\ 90,40,5,8
] 0,48,4,8
^ 10,48,5,8
_ 20,48,6,8
` 30,48,3,8
a 40,48,6,8
b 50,48,5,8
c 60,48,5,8
d 70,48,5,8
e 80,48,5,8
f 90,48,5,8
g 0,56,5,8
h 10,56,5,8
i 20,56,4,8
j 30,56,3,8
k 40,56,6,8
l 50,56,3,8
m 60,56,9,8
n 70,56,6,8
o 80,56,5,8
p 90,56,5,8
q 0,64,5,8
r 10,64,5,8
s 20,64,5,8
t 30,64,4,8
u 40,64,6,8
v 50,64,5,8
w 60,64,8,8
x 70,64,5,8
y 80,64,5,8
z 90,64,5,8
{ 0,72,4,8
| 10,72,2,8
} 20,72,4,8
~ 30,72,6,8
