~ 0,0,4,12
! 6,0,3,12
" 11,0,4,12
# 15,0,5,12
$ 20,0,5,12
% 25,0,5,12
& 30,0,5,12
' 37,0,2,12
( 40,0,5,12
) 45,0,5,12
* 51,0,4,12
+ 56,0,4,12
, 61,0,3,12
- 66,0,4,12
. 72,0,2,12
/ 75,0,5,12
0 80,0,5,12
1 86,0,4,12
2 90,0,5,12
3 95,0,5,12
4 0,12,5,12
5 5,12,5,12
6 10,12,5,12
7 15,12,5,12
8 20,12,5,12
9 25,12,5,12
: 32,12,2,12
; 36,12,3,12
< 40,12,5,12
= 45,12,5,12
> 50,12,5,12
? 55,12,5,12
@ 60,12,5,12
A 65,12,5,12
B 70,12,5,12
C 75,12,5,12
D 80,12,5,12
E 85,12,4,12
F 90,12,4,12
G 95,12,5,12
H 0,24,5,12
I 5,24,4,12
J 10,24,5,12
K 15,24,5,12
L 20,24,4,12
M 25,24,5,12
N 30,24,5,12
O 35,24,5,12
P 40,24,5,12
Q 45,24,5,12
R 50,24,5,12
S 55,24,5,12
T 60,24,4,12
U 65,24,5,12
V 70,24,5,12
W 75,24,5,12
X 80,24,5,12
Y 85,24,4,12
Z 90,24,5,12
[ 95,24,4,12
\ 0,36,5,12
] 5,36,4,12
^ 10,36,4,12
_ 15,36,5,12
` 21,36,3,12
a 25,36,5,12
b 30,36,5,12
c 35,36,5,12
d 40,36,5,12
e 45,36,5,12
f 50,36,5,12
g 55,36,5,12
h 60,36,5,12
i 66,36,4,12
j 70,36,5,12
k 76,36,4,12
l 81,36,4,12
m 85,36,5,12
n 90,36,5,12
o 95,36,5,12
p 0,48,5,12
q 5,48,5,12
r 11,48,4,12
s 15,48,5,12
t 20,48,5,12
u 25,48,5,12
v 30,48,5,12
w 35,48,5,12
x 40,48,5,12
y 45,48,5,12
z 50,48,5,12
{ 55,48,5,12
| 62,48,2,12
} 65,48,5,12
